"Method","BestCount","Mean_MAPE","WorstCount"
"ETS",2407,0.425620301006361,1173
"ARIMA",1480,0.433153142443342,1575
"Prophet",1274,0.996398928523116,4472
"C1-EqualW",343,0.563469929641232,1
"C2-OptW-MSE",783,0.389999490159074,0
"C3-OptW-MAPE",904,0.388394038183315,346
